{
  "project_info": {
    "project_number": "359029547306",
    "firebase_url": "https://sustho-3b3e4.firebaseio.com",
    "project_id": "sustho-3b3e4",
    "storage_bucket": "sustho-3b3e4.appspot.com"
  },
  "client": [
    {
      "client_info": {
        "mobilesdk_app_id": "1:359029547306:android:839d625389f3917e3d3e53",
        "android_client_info": {
          "package_name": "com.example.susthochatting"
        }
      },
      "oauth_client": [
        {
          "client_id": "359029547306-763gld0r7uqcvs1mq4oc7d35s093l90c.apps.googleusercontent.com",
          "client_type": 1,
          "android_info": {
            "package_name": "com.example.susthochatting",
            "certificate_hash": "c977d39d35cd1b28c48796e165602b6ae8173221"
          }
        },
        {
          "client_id": "359029547306-6nsipskk6svn8e4d515t3qkhkmqt81bk.apps.googleusercontent.com",
          "client_type": 3
        }
      ],
      "api_key": [
        {
          "current_key": "AIzaSyDU3cgjksn61si93NgiPSvT-rqODYxqTtU"
        }
      ],
      "services": {
        "appinvite_service": {
          "other_platform_oauth_client": [
            {
              "client_id": "359029547306-6nsipskk6svn8e4d515t3qkhkmqt81bk.apps.googleusercontent.com",
              "client_type": 3
            }
          ]
        }
      }
    },
    {
      "client_info": {
        "mobilesdk_app_id": "1:359029547306:android:ad7c7e28a04c8f053d3e53",
        "android_client_info": {
          "package_name": "com.susthoxyz.sustho"
        }
      },
      "oauth_client": [
        {
          "client_id": "359029547306-iee7a5j6bgdtk2e9ucq4r5ohuj4e4rl1.apps.googleusercontent.com",
          "client_type": 1,
          "android_info": {
            "package_name": "com.susthoxyz.sustho",
            "certificate_hash": "c977d39d35cd1b28c48796e165602b6ae8173221"
          }
        },
        {
          "client_id": "359029547306-lgi8dprbh2tcnfmuvuf7t574c1n46s81.apps.googleusercontent.com",
          "client_type": 1,
          "android_info": {
            "package_name": "com.susthoxyz.sustho",
            "certificate_hash": "afb269540302d560ef8660661313dceaba595e96"
          }
        },
        {
          "client_id": "359029547306-qos776ql5d3lh5bspekmu4u6u822ll5p.apps.googleusercontent.com",
          "client_type": 1,
          "android_info": {
            "package_name": "com.susthoxyz.sustho",
            "certificate_hash": "105178f9dd94098ca977a68be5482d535e9102ae"
          }
        },
        {
          "client_id": "359029547306-6nsipskk6svn8e4d515t3qkhkmqt81bk.apps.googleusercontent.com",
          "client_type": 3
        }
      ],
      "api_key": [
        {
          "current_key": "AIzaSyDU3cgjksn61si93NgiPSvT-rqODYxqTtU"
        }
      ],
      "services": {
        "appinvite_service": {
          "other_platform_oauth_client": [
            {
              "client_id": "359029547306-6nsipskk6svn8e4d515t3qkhkmqt81bk.apps.googleusercontent.com",
              "client_type": 3
            }
          ]
        }
      }
    },
    {
      "client_info": {
        "mobilesdk_app_id": "1:359029547306:android:6a343a7c0e3679db3d3e53",
        "android_client_info": {
          "package_name": "com.susthoxyz.sustho_chatting"
        }
      },
      "oauth_client": [
        {
          "client_id": "359029547306-r0uj4kq13lbtboreli6dulvj83k67l06.apps.googleusercontent.com",
          "client_type": 1,
          "android_info": {
            "package_name": "com.susthoxyz.sustho_chatting",
            "certificate_hash": "105178f9dd94098ca977a68be5482d535e9102ae"
          }
        },
        {
          "client_id": "359029547306-6nsipskk6svn8e4d515t3qkhkmqt81bk.apps.googleusercontent.com",
          "client_type": 3
        }
      ],
      "api_key": [
        {
          "current_key": "AIzaSyDU3cgjksn61si93NgiPSvT-rqODYxqTtU"
        }
      ],
      "services": {
        "appinvite_service": {
          "other_platform_oauth_client": [
            {
              "client_id": "359029547306-6nsipskk6svn8e4d515t3qkhkmqt81bk.apps.googleusercontent.com",
              "client_type": 3
            }
          ]
        }
      }
    },
    {
      "client_info": {
        "mobilesdk_app_id": "1:359029547306:android:e027b747fb8123743d3e53",
        "android_client_info": {
          "package_name": "com.susthoxyz.susthomeidicine"
        }
      },
      "oauth_client": [
        {
          "client_id": "359029547306-6tvlnc6po11cjgpkuv4piqq6d8533v1g.apps.googleusercontent.com",
          "client_type": 1,
          "android_info": {
            "package_name": "com.susthoxyz.susthomeidicine",
            "certificate_hash": "105178f9dd94098ca977a68be5482d535e9102ae"
          }
        },
        {
          "client_id": "359029547306-6nsipskk6svn8e4d515t3qkhkmqt81bk.apps.googleusercontent.com",
          "client_type": 3
        }
      ],
      "api_key": [
        {
          "current_key": "AIzaSyDU3cgjksn61si93NgiPSvT-rqODYxqTtU"
        }
      ],
      "services": {
        "appinvite_service": {
          "other_platform_oauth_client": [
            {
              "client_id": "359029547306-6nsipskk6svn8e4d515t3qkhkmqt81bk.apps.googleusercontent.com",
              "client_type": 3
            }
          ]
        }
      }
    }
  ],
  "configuration_version": "1"
}